[
  {
    "model": "account_ext.user",
    "pk": 4,
    "fields": {
      "password": "!",
      "last_login": "2017-07-08T20:30:23Z",
      "is_superuser": false,
      "username": "Джобс",
      "first_name": "Стив",
      "last_name": "Джобс",
      "email": "",
      "is_staff": false,
      "is_active": true,
      "date_joined": "2017-07-06T06:28:39Z",
      "photo": "demo/0000000004.jpg",
      "nickname": null,
      "is_public": true,
      "about": "американский предприниматель, получивший широкое признание в качестве пионера эры IT-технологий",
      "groups": [],
      "user_permissions": [],
      "categories": [1],
      "rate": 4.80
    }
  }
,
  {
    "model": "account_ext.user",
    "pk": 5,
    "fields": {
      "password": "!",
      "last_login": "2017-07-08T20:30:23Z",
      "is_superuser": false,
      "username": "Форд",
      "first_name": "Генри",
      "last_name": "Форд",
      "email": "",
      "is_staff": false,
      "is_active": true,
      "date_joined": "2017-07-06T06:28:39Z",
      "photo": "demo/0000000005.jpg",
      "nickname": null,
      "is_public": true,
      "about": "американский промышленник, владелец заводов по производству автомобилей по всему миру, изобретатель, автор 161 патента США",
      "groups": [],
      "user_permissions": [],
      "categories": [5, 3],
      "rate": 0.60
    }
  }
,
  {
    "model": "account_ext.user",
    "pk": 6,
    "fields": {
      "password": "!",
      "last_login": "2017-07-08T20:30:23Z",
      "is_superuser": false,
      "username": "Дэвисон Рокфеллер",
      "first_name": "Джон",
      "last_name": "Дэвисон Рокфеллер",
      "email": "",
      "is_staff": false,
      "is_active": true,
      "date_joined": "2017-07-06T06:28:39Z",
      "photo": "demo/0000000006.jpg",
      "nickname": null,
      "is_public": true,
      "about": "американский предприниматель, филантроп, первый долларовый миллиардер в истории человечества. В 1870 году основал компанию <a href='/wiki/Standard_Oil' title='Standard Oil'>Standard Oil</a>",
      "groups": [],
      "user_permissions": [],
      "categories": [2, 6],
      "rate": 1.40
    }
  }
,
  {
    "model": "account_ext.user",
    "pk": 7,
    "fields": {
      "password": "!",
      "last_login": "2017-07-08T20:30:23Z",
      "is_superuser": false,
      "username": "Ка́рнеги",
      "first_name": "Э́ндрю",
      "last_name": "Ка́рнеги",
      "email": "",
      "is_staff": false,
      "is_active": true,
      "date_joined": "2017-07-06T06:28:39Z",
      "photo": "demo/0000000007.jpg",
      "nickname": null,
      "is_public": true,
      "about": "американский предприниматель, крупный сталепромышленник, мультимиллионер и филантроп",
      "groups": [],
      "user_permissions": [],
      "categories": [4],
      "rate": 4.40
    }
  }
,
  {
    "model": "account_ext.user",
    "pk": 8,
    "fields": {
      "password": "!",
      "last_login": "2017-07-08T20:30:23Z",
      "is_superuser": false,
      "username": "Вандербильт",
      "first_name": "Корнелиус",
      "last_name": "Вандербильт",
      "email": "",
      "is_staff": false,
      "is_active": true,
      "date_joined": "2017-07-06T06:28:39Z",
      "photo": "demo/0000000008.jpg",
      "nickname": null,
      "is_public": true,
      "about": "один из богатейших и успешнейших предпринимателей США XIX столетия, основатель плутократического рода Вандербильтов",
      "groups": [],
      "user_permissions": [],
      "categories": [6, 2],
      "rate": 3.70
    }
  }
,
  {
    "model": "account_ext.user",
    "pk": 9,
    "fields": {
      "password": "!",
      "last_login": "2017-07-08T20:30:23Z",
      "is_superuser": false,
      "username": "Пирпонт Морган I",
      "first_name": "Джон",
      "last_name": "Пирпонт Морган I",
      "email": "",
      "is_staff": false,
      "is_active": true,
      "date_joined": "2017-07-06T06:28:39Z",
      "photo": "demo/0000000009.jpg",
      "nickname": null,
      "is_public": true,
      "about": "американский предприниматель, банкир и финансист",
      "groups": [],
      "user_permissions": [],
      "categories": [2, 4, 2],
      "rate": 2.30
    }
  }
,
  {
    "model": "account_ext.user",
    "pk": 10,
    "fields": {
      "password": "!",
      "last_login": "2017-07-08T20:30:23Z",
      "is_superuser": false,
      "username": "Амшель Ротшильд",
      "first_name": "Майер",
      "last_name": "Амшель Ротшильд",
      "email": "",
      "is_staff": false,
      "is_active": true,
      "date_joined": "2017-07-06T06:28:39Z",
      "photo": "demo/0000000010.jpg",
      "nickname": null,
      "is_public": true,
      "about": "основатель международной династии выдающихся предпринимателей, основатель банка во Франкфурте-на-Майне, масон. Дело продолжили пять его сыновей: Амшель Майер, Соломон Майер, Натан Майер, Калман Майер, Джеймс Майер.",
      "groups": [],
      "user_permissions": [],
      "categories": [3, 4],
      "rate": 4.20
    }
  }
,
  {
    "model": "account_ext.user",
    "pk": 11,
    "fields": {
      "password": "!",
      "last_login": "2017-07-08T20:30:23Z",
      "is_superuser": false,
      "username": "Эла́йас Дисней",
      "first_name": "Уо́лтер",
      "last_name": "Эла́йас Дисней",
      "email": "",
      "is_staff": false,
      "is_active": true,
      "date_joined": "2017-07-06T06:28:39Z",
      "photo": "demo/0000000011.JPG",
      "nickname": null,
      "is_public": true,
      "about": "американский художник-мультипликатор, кинорежиссёр, актёр, сценарист и продюсер",
      "groups": [],
      "user_permissions": [],
      "categories": [4, 6, 6],
      "rate": 2.70
    }
  }
,
  {
    "model": "account_ext.user",
    "pk": 12,
    "fields": {
      "password": "!",
      "last_login": "2017-07-08T20:30:23Z",
      "is_superuser": false,
      "username": "Альберт Крок",
      "first_name": "Реймонд",
      "last_name": "Альберт Крок",
      "email": "",
      "is_staff": false,
      "is_active": true,
      "date_joined": "2017-07-06T06:28:39Z",
      "photo": "demo/0000000012.jpg",
      "nickname": null,
      "is_public": true,
      "about": "американский предприниматель, ресторатор, основатель корпорации <a href='/wiki/McDonald%E2%80%99s' title='McDonald’s'>McDonald’s</a>",
      "groups": [],
      "user_permissions": [],
      "categories": [2, 3],
      "rate": 3.10
    }
  }
,
  {
    "model": "account_ext.user",
    "pk": 13,
    "fields": {
      "password": "!",
      "last_login": "2017-07-08T20:30:23Z",
      "is_superuser": false,
      "username": "Морита",
      "first_name": "Акио",
      "last_name": "Морита",
      "email": "",
      "is_staff": false,
      "is_active": true,
      "date_joined": "2017-07-06T06:28:39Z",
      "photo": "",
      "nickname": null,
      "is_public": true,
      "about": "японский предприниматель,один из основателей корпорации <a href='/wiki/Sony' title='Sony'>Sony</a>",
      "groups": [],
      "user_permissions": [],
      "categories": [3],
      "rate": 3.60
    }
  }
,
  {
    "model": "account_ext.user",
    "pk": 14,
    "fields": {
      "password": "!",
      "last_login": "2017-07-08T20:30:23Z",
      "is_superuser": false,
      "username": "Кук",
      "first_name": "Томас",
      "last_name": "Кук",
      "email": "",
      "is_staff": false,
      "is_active": true,
      "date_joined": "2017-07-06T06:28:39Z",
      "photo": "demo/0000000013.jpg",
      "nickname": null,
      "is_public": true,
      "about": "британский предприниматель. Прославился тем, что изобрел организованный туризм и в 1841 году открыл первое в истории туристическое агентство",
      "groups": [],
      "user_permissions": [],
      "categories": [6],
      "rate": 0.60
    }
  }
,
  {
    "model": "account_ext.user",
    "pk": 15,
    "fields": {
      "password": "!",
      "last_login": "2017-07-08T20:30:23Z",
      "is_superuser": false,
      "username": "Эдисон",
      "first_name": "Томас",
      "last_name": "Эдисон",
      "email": "",
      "is_staff": false,
      "is_active": true,
      "date_joined": "2017-07-06T06:28:39Z",
      "photo": "demo/0000000014.jpg",
      "nickname": null,
      "is_public": true,
      "about": "изобретатель и предприниматель",
      "groups": [],
      "user_permissions": [],
      "categories": [6],
      "rate": 4.60
    }
  }
,
  {
    "model": "account_ext.user",
    "pk": 16,
    "fields": {
      "password": "!",
      "last_login": "2017-07-08T20:30:23Z",
      "is_superuser": false,
      "username": "Бош",
      "first_name": "Роберт",
      "last_name": "Бош",
      "email": "",
      "is_staff": false,
      "is_active": true,
      "date_joined": "2017-07-06T06:28:39Z",
      "photo": "demo/0000000015.jpg",
      "nickname": null,
      "is_public": true,
      "about": "немецкий промышленник, инженер и изобретатель; основатель компании <a href='/wiki/Robert_Bosch_GmbH' title='Robert Bosch GmbH'>Bosch</a>",
      "groups": [],
      "user_permissions": [],
      "categories": [3, 3, 3],
      "rate": 4.40
    }
  }
,
  {
    "model": "account_ext.user",
    "pk": 17,
    "fields": {
      "password": "!",
      "last_login": "2017-07-08T20:30:23Z",
      "is_superuser": false,
      "username": "Артур По́рше",
      "first_name": "Фердинанд",
      "last_name": "Артур По́рше",
      "email": "",
      "is_staff": false,
      "is_active": true,
      "date_joined": "2017-07-06T06:28:39Z",
      "photo": "demo/0000000016.jpg",
      "nickname": null,
      "is_public": true,
      "about": "немецкий конструктор автомобилей и бронетанковой техники. Основатель компании <a href='/wiki/Porsche' title='Porsche'>Porsche</a>",
      "groups": [],
      "user_permissions": [],
      "categories": [1, 2],
      "rate": 0.50
    }
  }
,
  {
    "model": "account_ext.user",
    "pk": 18,
    "fields": {
      "password": "!",
      "last_login": "2017-07-08T20:30:23Z",
      "is_superuser": false,
      "username": "Ве́рнер фон Си́менс",
      "first_name": "Эрнст",
      "last_name": "Ве́рнер фон Си́менс",
      "email": "",
      "is_staff": false,
      "is_active": true,
      "date_joined": "2017-07-06T06:28:39Z",
      "photo": "demo/0000000017.jpg",
      "nickname": null,
      "is_public": true,
      "about": "известный немецкий инженер, изобретатель, учёный, промышленник, основатель фирмы Siemens, общественный и политический деятель",
      "groups": [],
      "user_permissions": [],
      "categories": [5, 3, 2],
      "rate": 0.50
    }
  }
,
  {
    "model": "account_ext.user",
    "pk": 19,
    "fields": {
      "password": "!",
      "last_login": "2017-07-08T20:30:23Z",
      "is_superuser": false,
      "username": "Вильсдорф",
      "first_name": "Ганс",
      "last_name": "Вильсдорф",
      "email": "",
      "is_staff": false,
      "is_active": true,
      "date_joined": "2017-07-06T06:28:39Z",
      "photo": "",
      "nickname": null,
      "is_public": true,
      "about": "немецкий предприниматель, основатель компании <a href='/wiki/Rolex' title='Rolex'>Rolex</a>",
      "groups": [],
      "user_permissions": [],
      "categories": [4, 6],
      "rate": 1.10
    }
  }
,
  {
    "model": "account_ext.user",
    "pk": 20,
    "fields": {
      "password": "!",
      "last_login": "2017-07-08T20:30:23Z",
      "is_superuser": false,
      "username": "Бён Чхоль",
      "first_name": "Ли",
      "last_name": "Бён Чхоль",
      "email": "",
      "is_staff": false,
      "is_active": true,
      "date_joined": "2017-07-06T06:28:39Z",
      "photo": "",
      "nickname": null,
      "is_public": true,
      "about": "основатель «<a href='/wiki/Samsung_Group' class='mw-redirect' title='Samsung Group'>Samsung Group</a>» и один из самых успешных бизнесменов Республики Корея",
      "groups": [],
      "user_permissions": [],
      "categories": [1],
      "rate": 3.70
    }
  }
,
  {
    "model": "account_ext.user",
    "pk": 21,
    "fields": {
      "password": "!",
      "last_login": "2017-07-08T20:30:23Z",
      "is_superuser": false,
      "username": "и Жерар Филипс",
      "first_name": "Антон",
      "last_name": "и Жерар Филипс",
      "email": "",
      "is_staff": false,
      "is_active": true,
      "date_joined": "2017-07-06T06:28:39Z",
      "photo": "demo/0000000018.jpg",
      "nickname": null,
      "is_public": true,
      "about": "предприниматели, основатели <a href='/wiki/Philips' title='Philips'>Philips</a>",
      "groups": [],
      "user_permissions": [],
      "categories": [6, 2],
      "rate": 0.80
    }
  }
,
  {
    "model": "account_ext.user",
    "pk": 22,
    "fields": {
      "password": "!",
      "last_login": "2017-07-08T20:30:23Z",
      "is_superuser": false,
      "username": "Уолтон",
      "first_name": "Сэм",
      "last_name": "Уолтон",
      "email": "",
      "is_staff": false,
      "is_active": true,
      "date_joined": "2017-07-06T06:28:39Z",
      "photo": "",
      "nickname": null,
      "is_public": true,
      "about": "американский бизнесмен, основатель сетей магазинов <a href='/wiki/Wal-Mart' class='mw-redirect' title='Wal-Mart'>Wal-Mart</a> и <a href='/wiki/Sam%27s_Club' class='mw-redirect' title='Sam's Club'>Sam's Club</a>",
      "groups": [],
      "user_permissions": [],
      "categories": [5, 4, 4],
      "rate": 2.40
    }
  }
,
  {
    "model": "account_ext.user",
    "pk": 23,
    "fields": {
      "password": "!",
      "last_login": "2017-07-08T20:30:23Z",
      "is_superuser": false,
      "username": "Джонстон Липтон",
      "first_name": "Томас",
      "last_name": "Джонстон Липтон",
      "email": "",
      "is_staff": false,
      "is_active": true,
      "date_joined": "2017-07-06T06:28:39Z",
      "photo": "demo/0000000019.jpg",
      "nickname": null,
      "is_public": true,
      "about": "шотландский торговец и яхтсмен, создатель бренда чая «Липтон». Также он был самым стойким соперником в истории Кубка Америки",
      "groups": [],
      "user_permissions": [],
      "categories": [4, 1, 4],
      "rate": 0.00
    }
  }
,
  {
    "model": "account_ext.user",
    "pk": 24,
    "fields": {
      "password": "!",
      "last_login": "2017-07-08T20:30:23Z",
      "is_superuser": false,
      "username": "Михаэль Йоханнес Магги",
      "first_name": "Юлиус",
      "last_name": "Михаэль Йоханнес Магги",
      "email": "",
      "is_staff": false,
      "is_active": true,
      "date_joined": "2017-07-06T06:28:39Z",
      "photo": "demo/0000000020.jpg",
      "nickname": null,
      "is_public": true,
      "about": "швейцарский кулинар и предприниматель, в 1882 году разработал производство быстрорастворимых гороховых и бобовых супов",
      "groups": [],
      "user_permissions": [],
      "categories": [4, 6, 5],
      "rate": 2.00
    }
  }
,
  {
    "model": "account_ext.user",
    "pk": 25,
    "fields": {
      "password": "!",
      "last_login": "2017-07-08T20:30:23Z",
      "is_superuser": false,
      "username": "Зингер",
      "first_name": "Айзек",
      "last_name": "Зингер",
      "email": "",
      "is_staff": false,
      "is_active": true,
      "date_joined": "2017-07-06T06:28:39Z",
      "photo": "demo/0000000021.jpg",
      "nickname": null,
      "is_public": true,
      "about": "американский изобретатель и промышленник. Внёс существенный вклад в усовершенствование конструкции швейной машины",
      "groups": [],
      "user_permissions": [],
      "categories": [3, 2],
      "rate": 0.50
    }
  }
,
  {
    "model": "account_ext.user",
    "pk": 26,
    "fields": {
      "password": "!",
      "last_login": "2017-07-08T20:30:23Z",
      "is_superuser": false,
      "username": "Гуччи",
      "first_name": "Гуччио",
      "last_name": "Гуччи",
      "email": "",
      "is_staff": false,
      "is_active": true,
      "date_joined": "2017-07-06T06:28:39Z",
      "photo": "",
      "nickname": null,
      "is_public": true,
      "about": "Модельер,основатель дома моды <a href='/wiki/Gucci' title='Gucci, Gucci'>Gucci</a>",
      "groups": [],
      "user_permissions": [],
      "categories": [4, 4, 3],
      "rate": 1.70
    }
  }
,
  {
    "model": "account_ext.user",
    "pk": 27,
    "fields": {
      "password": "!",
      "last_login": "2017-07-08T20:30:23Z",
      "is_superuser": false,
      "username": "Проктер и Джеймс Гэмбл",
      "first_name": "Уильям",
      "last_name": "Проктер и Джеймс Гэмбл",
      "email": "",
      "is_staff": false,
      "is_active": true,
      "date_joined": "2017-07-06T06:28:39Z",
      "photo": "demo/0000000022.jpg",
      "nickname": null,
      "is_public": true,
      "about": "предприниматели,основатели <a href='/wiki/Procter_%26_Gamble' title='Procter &amp; Gamble'>Procter &amp; Gamble</a>",
      "groups": [],
      "user_permissions": [],
      "categories": [1, 3],
      "rate": 2.20
    }
  }
,
  {
    "model": "account_ext.user",
    "pk": 28,
    "fields": {
      "password": "!",
      "last_login": "2017-07-08T20:30:23Z",
      "is_superuser": false,
      "username": "Шанель",
      "first_name": "Коко",
      "last_name": "Шанель",
      "email": "",
      "is_staff": false,
      "is_active": true,
      "date_joined": "2017-07-06T06:28:39Z",
      "photo": "demo/0000000023.jpg",
      "nickname": null,
      "is_public": true,
      "about": "французский модельер, основавшая модный дом Chanel и оказавшая существенное влияние на европейскую моду XX века",
      "groups": [],
      "user_permissions": [],
      "categories": [5],
      "rate": 4.90
    }
  }
,
  {
    "model": "account_ext.user",
    "pk": 29,
    "fields": {
      "password": "!",
      "last_login": "2017-07-08T20:30:23Z",
      "is_superuser": false,
      "username": "Hall McConnell",
      "first_name": "David",
      "last_name": "Hall McConnell",
      "email": "",
      "is_staff": false,
      "is_active": true,
      "date_joined": "2017-07-06T06:28:39Z",
      "photo": "demo/0000000024.jpg",
      "nickname": null,
      "is_public": true,
      "about": "the Founder and President of the California Perfume Company, which later became <a href='/wiki/Avon_Products' title='Avon Products'>Avon Products</a>",
      "groups": [],
      "user_permissions": [],
      "categories": [4],
      "rate": 0.50
    }
  }
,
  {
    "model": "account_ext.user",
    "pk": 30,
    "fields": {
      "password": "!",
      "last_login": "2017-07-08T20:30:23Z",
      "is_superuser": false,
      "username": "Галвин",
      "first_name": "Пол",
      "last_name": "Галвин",
      "email": "",
      "is_staff": false,
      "is_active": true,
      "date_joined": "2017-07-06T06:28:39Z",
      "photo": "demo/0000000025.png",
      "nickname": null,
      "is_public": true,
      "about": "Бизнесмен",
      "groups": [],
      "user_permissions": [],
      "categories": [6, 6],
      "rate": 1.50
    }
  }
,
  {
    "model": "account_ext.user",
    "pk": 31,
    "fields": {
      "password": "!",
      "last_login": "2017-07-08T20:30:23Z",
      "is_superuser": false,
      "username": "Купер",
      "first_name": "Мартин",
      "last_name": "Купер",
      "email": "",
      "is_staff": false,
      "is_active": true,
      "date_joined": "2017-07-06T06:28:39Z",
      "photo": "demo/0000000026.jpg",
      "nickname": null,
      "is_public": true,
      "about": "американский инженер и физик, известен как человек, совершивший первый звонок по сотовому телефону",
      "groups": [],
      "user_permissions": [],
      "categories": [5],
      "rate": 0.90
    }
  }
,
  {
    "model": "account_ext.user",
    "pk": 32,
    "fields": {
      "password": "!",
      "last_login": "2017-07-08T20:30:23Z",
      "is_superuser": false,
      "username": "Фактор",
      "first_name": "Макс",
      "last_name": "Фактор",
      "email": "",
      "is_staff": false,
      "is_active": true,
      "date_joined": "2017-07-06T06:28:39Z",
      "photo": "demo/0000000027.jpg",
      "nickname": null,
      "is_public": true,
      "about": "американский бизнесмен еврейского происхождения, выходец из Российской империи. Основатель компании Max Factor",
      "groups": [],
      "user_permissions": [],
      "categories": [1, 2, 3],
      "rate": 0.10
    }
  }
,
  {
    "model": "account_ext.user",
    "pk": 33,
    "fields": {
      "password": "!",
      "last_login": "2017-07-08T20:30:23Z",
      "is_superuser": false,
      "username": "Страусс",
      "first_name": "Ливай",
      "last_name": "Страусс",
      "email": "",
      "is_staff": false,
      "is_active": true,
      "date_joined": "2017-07-06T06:28:39Z",
      "photo": "demo/0000000028.jpg",
      "nickname": null,
      "is_public": true,
      "about": "американский промышленник, основатель компании Levi Strauss &amp; Co., изобретатель джинсов",
      "groups": [],
      "user_permissions": [],
      "categories": [1, 2],
      "rate": 2.80
    }
  }
,
  {
    "model": "account_ext.user",
    "pk": 34,
    "fields": {
      "password": "!",
      "last_login": "2017-07-08T20:30:23Z",
      "is_superuser": false,
      "username": "Феррари",
      "first_name": "Энцо",
      "last_name": "Феррари",
      "email": "",
      "is_staff": false,
      "is_active": true,
      "date_joined": "2017-07-06T06:28:39Z",
      "photo": "demo/0000000029.jpg",
      "nickname": null,
      "is_public": true,
      "about": "итальянский конструктор, предприниматель и автогонщик. Основатель автомобилестроительной компании «Феррари» и одноименной автогоночной команды",
      "groups": [],
      "user_permissions": [],
      "categories": [4, 4, 3],
      "rate": 1.90
    }
  }
,
  {
    "model": "account_ext.user",
    "pk": 35,
    "fields": {
      "password": "!",
      "last_login": "2017-07-08T20:30:23Z",
      "is_superuser": false,
      "username": "Гейтс",
      "first_name": "Билл",
      "last_name": "Гейтс",
      "email": "",
      "is_staff": false,
      "is_active": true,
      "date_joined": "2017-07-06T06:28:39Z",
      "photo": "demo/0000000030.jpg",
      "nickname": null,
      "is_public": true,
      "about": "американский предприниматель и общественный деятель, филантроп, один из создателей компании Microsof",
      "groups": [],
      "user_permissions": [],
      "categories": [6, 6, 4],
      "rate": 2.80
    }
  }
,
  {
    "model": "account_ext.user",
    "pk": 36,
    "fields": {
      "password": "!",
      "last_login": "2017-07-08T20:30:23Z",
      "is_superuser": false,
      "username": "Феодор Кампрад",
      "first_name": "Ингвар",
      "last_name": "Феодор Кампрад",
      "email": "",
      "is_staff": false,
      "is_active": true,
      "date_joined": "2017-07-06T06:28:39Z",
      "photo": "demo/0000000031.jpg",
      "nickname": null,
      "is_public": true,
      "about": "предприниматель из Швеции. Один из богатейших людей мира, основатель компании IKEA — сети магазинов, торгующих товарами для дома",
      "groups": [],
      "user_permissions": [],
      "categories": [6],
      "rate": 3.30
    }
  }
,
  {
    "model": "account_ext.user",
    "pk": 37,
    "fields": {
      "password": "!",
      "last_login": "2017-07-08T20:30:23Z",
      "is_superuser": false,
      "username": "Дьюар",
      "first_name": "Томас",
      "last_name": "Дьюар",
      "email": "",
      "is_staff": false,
      "is_active": true,
      "date_joined": "2017-07-06T06:28:39Z",
      "photo": "demo/0000000032.jpg",
      "nickname": null,
      "is_public": true,
      "about": "английский предприниматель, производитель виски. В конце XIX века решил сделать виски узнаваемым во всём мире. Оставив старшего брата в Шотландии заниматься делами, он отправился в кругосветное путешествие",
      "groups": [],
      "user_permissions": [],
      "categories": [3, 3],
      "rate": 1.60
    }
  }
,
  {
    "model": "account_ext.user",
    "pk": 38,
    "fields": {
      "password": "!",
      "last_login": "2017-07-08T20:30:23Z",
      "is_superuser": false,
      "username": "Баффетт",
      "first_name": "Уоррен",
      "last_name": "Баффетт",
      "email": "",
      "is_staff": false,
      "is_active": true,
      "date_joined": "2017-07-06T06:28:39Z",
      "photo": "demo/0000000033.jpg",
      "nickname": null,
      "is_public": true,
      "about": "американский предприниматель, крупнейший в мире и один из наиболее известных инвесторов, состояние которого на 2017 год оценивалось в 75 млрд долл. США",
      "groups": [],
      "user_permissions": [],
      "categories": [5, 4, 2],
      "rate": 4.80
    }
  }
,
  {
    "model": "account_ext.user",
    "pk": 39,
    "fields": {
      "password": "!",
      "last_login": "2017-07-08T20:30:23Z",
      "is_superuser": false,
      "username": "Кийосаки",
      "first_name": "Роберт",
      "last_name": "Кийосаки",
      "email": "",
      "is_staff": false,
      "is_active": true,
      "date_joined": "2017-07-06T06:28:39Z",
      "photo": "demo/0000000034.jpg",
      "nickname": null,
      "is_public": true,
      "about": "американский бизнесмен, инвестор, автор ряда книг по саморазвитию, педагог, мотивационный спикер",
      "groups": [],
      "user_permissions": [],
      "categories": [4, 3, 1],
      "rate": 3.00
    }
  }
,
  {
    "model": "account_ext.user",
    "pk": 40,
    "fields": {
      "password": "!",
      "last_login": "2017-07-08T20:30:23Z",
      "is_superuser": false,
      "username": "Шульц",
      "first_name": "Говард",
      "last_name": "Шульц",
      "email": "",
      "is_staff": false,
      "is_active": true,
      "date_joined": "2017-07-06T06:28:39Z",
      "photo": "demo/0000000035.jpg",
      "nickname": null,
      "is_public": true,
      "about": "американский бизнесмен, наиболее известный как председатель совета директоров и CEO <a href='/wiki/Starbucks' title='Starbucks'>Starbucks</a>",
      "groups": [],
      "user_permissions": [],
      "categories": [4, 1],
      "rate": 4.10
    }
  }
,
  {
    "model": "account_ext.user",
    "pk": 41,
    "fields": {
      "password": "!",
      "last_login": "2017-07-08T20:30:23Z",
      "is_superuser": false,
      "username": "Уоллас Смит",
      "first_name": "Фредерик",
      "last_name": "Уоллас Смит",
      "email": "",
      "is_staff": false,
      "is_active": true,
      "date_joined": "2017-07-06T06:28:39Z",
      "photo": "demo/0000000036.jpg",
      "nickname": null,
      "is_public": true,
      "about": "американский бизнесмен; основатель, нынешний председатель совета директоров и президент компании <a href='/wiki/FedEx' title='FedEx'>FedEx</a>",
      "groups": [],
      "user_permissions": [],
      "categories": [3, 4, 5],
      "rate": 3.50
    }
  }
,
  {
    "model": "account_ext.user",
    "pk": 42,
    "fields": {
      "password": "!",
      "last_login": "2017-07-08T20:30:23Z",
      "is_superuser": false,
      "username": "Делл",
      "first_name": "Майкл",
      "last_name": "Делл",
      "email": "",
      "is_staff": false,
      "is_active": true,
      "date_joined": "2017-07-06T06:28:39Z",
      "photo": "demo/0000000037.jpg",
      "nickname": null,
      "is_public": true,
      "about": "основатель и руководитель компании Dell. Начинал свою фирму в кустарных условиях, предоставляя самодельные модификации <a href='/wiki/IBM' title='IBM'>IBM</a> PC",
      "groups": [],
      "user_permissions": [],
      "categories": [4, 4],
      "rate": 3.00
    }
  }
,
  {
    "model": "account_ext.user",
    "pk": 43,
    "fields": {
      "password": "!",
      "last_login": "2017-07-08T20:30:23Z",
      "is_superuser": false,
      "username": "Безос",
      "first_name": "Джефф",
      "last_name": "Безос",
      "email": "",
      "is_staff": false,
      "is_active": true,
      "date_joined": "2017-07-06T06:28:39Z",
      "photo": "demo/0000000038.jpg",
      "nickname": null,
      "is_public": true,
      "about": "американский предприниматель. Глава и основатель интернет-компании <a href='/wiki/Amazon.com' title='Amazon.com'>Amazon.com</a>, основатель и владелец аэрокосмической компании <a href='/wiki/Blue_Origin' title='Blue Origin'>Blue Origin</a> и владелец издательского дома <a href='/wiki/The_Washington_Post' title='The Washington Post'>The Washington Post</a>",
      "groups": [],
      "user_permissions": [],
      "categories": [5, 1],
      "rate": 2.10
    }
  }
,
  {
    "model": "account_ext.user",
    "pk": 44,
    "fields": {
      "password": "!",
      "last_login": "2017-07-08T20:30:23Z",
      "is_superuser": false,
      "username": "Маск",
      "first_name": "Илон",
      "last_name": "Маск",
      "email": "",
      "is_staff": false,
      "is_active": true,
      "date_joined": "2017-07-06T06:28:39Z",
      "photo": "demo/0000000039.jpg",
      "nickname": null,
      "is_public": true,
      "about": "американский инженер, предприниматель, изобретатель и инвестор; миллиардер. Основатель компаний <a href='/wiki/SpaceX' title='SpaceX'>SpaceX</a>, <a href='/wiki/Tesla' title='Tesla'>Tesla</a>, <a href='/wiki/PayPal' title='PayPal'>PayPal</a>, входит в совет директоров <a href='/wiki/SolarCity' title='SolarCity'>SolarCity</a>",
      "groups": [],
      "user_permissions": [],
      "categories": [5, 5],
      "rate": 3.10
    }
  }
,
  {
    "model": "account_ext.user",
    "pk": 45,
    "fields": {
      "password": "!",
      "last_login": "2017-07-08T20:30:23Z",
      "is_superuser": false,
      "username": "Брэнсон",
      "first_name": "Ричард",
      "last_name": "Брэнсон",
      "email": "",
      "is_staff": false,
      "is_active": true,
      "date_joined": "2017-07-06T06:28:39Z",
      "photo": "demo/0000000040.jpg",
      "nickname": null,
      "is_public": true,
      "about": "британский предприниматель, основатель корпорации Virgin Group, включающей в себя около 400 компаний различного профиля",
      "groups": [],
      "user_permissions": [],
      "categories": [2, 1, 3],
      "rate": 2.50
    }
  }
,
  {
    "model": "account_ext.user",
    "pk": 46,
    "fields": {
      "password": "!",
      "last_login": "2017-07-08T20:30:23Z",
      "is_superuser": false,
      "username": "Брин",
      "first_name": "Сергей",
      "last_name": "Брин",
      "email": "",
      "is_staff": false,
      "is_active": true,
      "date_joined": "2017-07-06T06:28:39Z",
      "photo": "demo/0000000041.jpg",
      "nickname": null,
      "is_public": true,
      "about": "предприниматели,основатели <a href='/wiki/Google_(%D0%BA%D0%BE%D0%BC%D0%BF%D0%B0%D0%BD%D0%B8%D1%8F)' title='Google (компания)'>Google</a>",
      "groups": [],
      "user_permissions": [],
      "categories": [4, 5, 6],
      "rate": 3.40
    }
  }
,
  {
    "model": "account_ext.user",
    "pk": 47,
    "fields": {
      "password": "!",
      "last_login": "2017-07-08T20:30:23Z",
      "is_superuser": false,
      "username": "Хонда",
      "first_name": "Соитиро",
      "last_name": "Хонда",
      "email": "",
      "is_staff": false,
      "is_active": true,
      "date_joined": "2017-07-06T06:28:39Z",
      "photo": "demo/0000000042.jpg",
      "nickname": null,
      "is_public": true,
      "about": "основатель компании Honda Motor",
      "groups": [],
      "user_permissions": [],
      "categories": [4, 3],
      "rate": 4.30
    }
  }
,
  {
    "model": "account_ext.user",
    "pk": 48,
    "fields": {
      "password": "!",
      "last_login": "2017-07-08T20:30:23Z",
      "is_superuser": false,
      "username": "Сваровски",
      "first_name": "Даниэль",
      "last_name": "Сваровски",
      "email": "",
      "is_staff": false,
      "is_active": true,
      "date_joined": "2017-07-06T06:28:39Z",
      "photo": "demo/0000000043.jpg",
      "nickname": null,
      "is_public": true,
      "about": "основатель австрийской хрустальной империи <a href='/wiki/Swarovski' title='Swarovski'>Swarovski</a>",
      "groups": [],
      "user_permissions": [],
      "categories": [6],
      "rate": 1.20
    }
  }
,
  {
    "model": "account_ext.user",
    "pk": 49,
    "fields": {
      "password": "!",
      "last_login": "2017-07-08T20:30:23Z",
      "is_superuser": false,
      "username": "Цукерберг",
      "first_name": "Марк",
      "last_name": "Цукерберг",
      "email": "",
      "is_staff": false,
      "is_active": true,
      "date_joined": "2017-07-06T06:28:39Z",
      "photo": "demo/0000000044.jpg",
      "nickname": null,
      "is_public": true,
      "about": "американский программист и предприниматель в области интернет-технологий, долларовый миллиардер, один из разработчиков и основателей социальной сети Facebook. Руководитель компании Facebook Inc",
      "groups": [],
      "user_permissions": [],
      "categories": [3, 1, 2],
      "rate": 0.10
    }
  }
,
  {
    "model": "account_ext.user",
    "pk": 50,
    "fields": {
      "password": "!",
      "last_login": "2017-07-08T20:30:23Z",
      "is_superuser": false,
      "username": "Диор",
      "first_name": "Кристиан",
      "last_name": "Диор",
      "email": "",
      "is_staff": false,
      "is_active": true,
      "date_joined": "2017-07-06T06:28:39Z",
      "photo": "demo/0000000045.jpg",
      "nickname": null,
      "is_public": true,
      "about": "французский модельер одежды",
      "groups": [],
      "user_permissions": [],
      "categories": [5, 2],
      "rate": 4.70
    }
  }
,
  {
    "model": "account_ext.user",
    "pk": 51,
    "fields": {
      "password": "!",
      "last_login": "2017-07-08T20:30:23Z",
      "is_superuser": false,
      "username": "Роллс",
      "first_name": "Чарльз",
      "last_name": "Роллс",
      "email": "",
      "is_staff": false,
      "is_active": true,
      "date_joined": "2017-07-06T06:28:39Z",
      "photo": "demo/0000000046.jpg",
      "nickname": null,
      "is_public": true,
      "about": "британские предприниматели, инженеры, основавшие компанию <a href='/wiki/Rolls-Royce_Limited' title='Rolls-Royce Limited'>Rolls-Royce</a>",
      "groups": [],
      "user_permissions": [],
      "categories": [3],
      "rate": 4.80
    }
  }
,
  {
    "model": "account_ext.user",
    "pk": 52,
    "fields": {
      "password": "!",
      "last_login": "2017-07-08T20:30:23Z",
      "is_superuser": false,
      "username": "Армани",
      "first_name": "Джорджо",
      "last_name": "Армани",
      "email": "",
      "is_staff": false,
      "is_active": true,
      "date_joined": "2017-07-06T06:28:39Z",
      "photo": "demo/0000000047.jpg",
      "nickname": null,
      "is_public": true,
      "about": "итальянский модельер и предприниматель, основатель компании Armani, один из богатейших людей Италии",
      "groups": [],
      "user_permissions": [],
      "categories": [1, 4, 6],
      "rate": 2.70
    }
  }
,
  {
    "model": "account_ext.user",
    "pk": 53,
    "fields": {
      "password": "!",
      "last_login": "2017-07-08T20:30:23Z",
      "is_superuser": false,
      "username": "Версаче",
      "first_name": "Джанни",
      "last_name": "Версаче",
      "email": "",
      "is_staff": false,
      "is_active": true,
      "date_joined": "2017-07-06T06:28:39Z",
      "photo": "demo/0000000048.jpg",
      "nickname": null,
      "is_public": true,
      "about": "итальянский модельер и дизайнер, основатель модного дома Gianni Versace",
      "groups": [],
      "user_permissions": [],
      "categories": [2, 5, 1],
      "rate": 2.90
    }
  }
,
  {
    "model": "account_ext.user",
    "pk": 54,
    "fields": {
      "password": "!",
      "last_login": "2017-07-08T20:30:23Z",
      "is_superuser": false,
      "username": "Найт",
      "first_name": "Фил",
      "last_name": "Найт",
      "email": "",
      "is_staff": false,
      "is_active": true,
      "date_joined": "2017-07-06T06:28:39Z",
      "photo": "demo/0000000049.jpg",
      "nickname": null,
      "is_public": true,
      "about": "американский бизнесмен, один из основателей компании <a href='/wiki/Nike' title='Nike'>Nike</a>",
      "groups": [],
      "user_permissions": [],
      "categories": [1, 6, 3],
      "rate": 1.20
    }
  }
,
  {
    "model": "account_ext.user",
    "pk": 55,
    "fields": {
      "password": "!",
      "last_login": "2017-07-08T20:30:23Z",
      "is_superuser": false,
      "username": "Бич",
      "first_name": "Марсель",
      "last_name": "Бич",
      "email": "",
      "is_staff": false,
      "is_active": true,
      "date_joined": "2017-07-06T06:28:39Z",
      "photo": "demo/0000000050.jpg",
      "nickname": null,
      "is_public": true,
      "about": "основатель и соучредитель компании Bic, мирового лидера по производству одноразовых шариковых ручек",
      "groups": [],
      "user_permissions": [],
      "categories": [2, 1, 2],
      "rate": 1.80
    }
  }
,
  {
    "model": "account_ext.user",
    "pk": 56,
    "fields": {
      "password": "!",
      "last_login": "2017-07-08T20:30:23Z",
      "is_superuser": false,
      "username": "Керкорян",
      "first_name": "Кирк",
      "last_name": "Керкорян",
      "email": "",
      "is_staff": false,
      "is_active": true,
      "date_joined": "2017-07-06T06:28:39Z",
      "photo": "demo/0000000051.jpg",
      "nickname": null,
      "is_public": true,
      "about": "американский предприниматель, миллиардер армянского происхождения",
      "groups": [],
      "user_permissions": [],
      "categories": [4, 2],
      "rate": 0.30
    }
  }
,
  {
    "model": "account_ext.user",
    "pk": 57,
    "fields": {
      "password": "!",
      "last_login": "2017-07-08T20:30:23Z",
      "is_superuser": false,
      "username": "Митио",
      "first_name": "Судзуки,",
      "last_name": "Митио",
      "email": "",
      "is_staff": false,
      "is_active": true,
      "date_joined": "2017-07-06T06:28:39Z",
      "photo": "demo/0000000052.jpg",
      "nickname": null,
      "is_public": true,
      "about": "was a Japanese businessman and inventor, who founded the present multinational motor corporation <a href='/wiki/Suzuki' title='Suzuki'>Suzuki</a>",
      "groups": [],
      "user_permissions": [],
      "categories": [3, 2, 1],
      "rate": 0.60
    }
  }
,
  {
    "model": "account_ext.user",
    "pk": 58,
    "fields": {
      "password": "!",
      "last_login": "2017-07-08T20:30:23Z",
      "is_superuser": false,
      "username": "Стюарт",
      "first_name": "Марта",
      "last_name": "Стюарт",
      "email": "",
      "is_staff": false,
      "is_active": true,
      "date_joined": "2017-07-06T06:28:39Z",
      "photo": "demo/0000000053.JPG",
      "nickname": null,
      "is_public": true,
      "about": "американская бизнесвумен, телеведущая и писательница, получившая известность и состояние благодаря советам по домоводству",
      "groups": [],
      "user_permissions": [],
      "categories": [2, 3, 2],
      "rate": 3.20
    }
  }
,
  {
    "model": "account_ext.user",
    "pk": 59,
    "fields": {
      "password": "!",
      "last_login": "2017-07-08T20:30:23Z",
      "is_superuser": false,
      "username": "Перо",
      "first_name": "Росс",
      "last_name": "Перо",
      "email": "",
      "is_staff": false,
      "is_active": true,
      "date_joined": "2017-07-06T06:28:39Z",
      "photo": "demo/0000000054.jpg",
      "nickname": null,
      "is_public": true,
      "about": "американский бизнесмен, филантроп, консервативный политик и независимый кандидат на пост президента США в 1992 и 1996 годах",
      "groups": [],
      "user_permissions": [],
      "categories": [6],
      "rate": 3.90
    }
  }
,
  {
    "model": "account_ext.user",
    "pk": 60,
    "fields": {
      "password": "!",
      "last_login": "2017-07-08T20:30:23Z",
      "is_superuser": false,
      "username": "Мур",
      "first_name": "Гордон",
      "last_name": "Мур",
      "email": "",
      "is_staff": false,
      "is_active": true,
      "date_joined": "2017-07-06T06:28:39Z",
      "photo": "demo/0000000055.jpg",
      "nickname": null,
      "is_public": true,
      "about": "почётный председатель совета директоров и основатель корпорации Intel, основоположник «закона Мура»",
      "groups": [],
      "user_permissions": [],
      "categories": [1, 4],
      "rate": 4.80
    }
  }
,
  {
    "model": "account_ext.user",
    "pk": 61,
    "fields": {
      "password": "!",
      "last_login": "2017-07-08T20:30:23Z",
      "is_superuser": false,
      "username": "Парето",
      "first_name": "Вильфредо",
      "last_name": "Парето",
      "email": "",
      "is_staff": false,
      "is_active": true,
      "date_joined": "2017-07-06T06:28:39Z",
      "photo": "demo/0000000056.jpg",
      "nickname": null,
      "is_public": true,
      "about": "итальянский инженер, экономист и социолог. Один из основоположников теории элит",
      "groups": [],
      "user_permissions": [],
      "categories": [1, 2, 6],
      "rate": 1.20
    }
  }
]